[
  {
    "id": 1,
    "name": "Peru Feil, Bergnaum and Lowe",
    "created_at": "2016-10-29T20:19:49+0000",
    "players": [
      {
        "id": 242,
        "name": "Kian Raynor",
        "created_at": "2016-09-08T00:42:53+0000"
      },
      {
        "id": 420,
        "name": "Jerrod Boehm",
        "created_at": "2017-03-23T14:58:49+0000"
      }
    ],
    "tournaments": [
      {
        "id": 94,
        "name": "Purdy, Jacobi and Champlin Tournament",
        "starts_at": "2018-02-03T00:13:04+0000",
        "ends_at": "2018-02-27T00:13:04+0000"
      },
      {
        "id": 99,
        "name": "Jerde-Hudson League",
        "starts_at": "2016-11-28T23:51:50+0000",
        "ends_at": "2016-12-23T23:51:50+0000"
      }
    ]
  },
  {
    "id": 2,
    "name": "Sudan Ondricka-Barton",
    "created_at": "2016-04-28T22:09:54+0000",
    "players": [
      {
        "id": 399,
        "name": "Euna Parisian",
        "created_at": "2016-06-17T16:11:49+0000"
      }
    ],
    "tournaments": [
      {
        "id": 92,
        "name": "Koepp Inc Championship",
        "starts_at": "2017-10-05T21:45:49+0000",
        "ends_at": "2017-10-13T21:45:49+0000"
      }
    ]
  }
]